%YAML 1.1
%TAG !u! tag:unity3d.com,2011:
--- !u!1045 &1
EditorBuildSettings:
  m_ObjectHideFlags: 0
  serializedVersion: 2
  m_Scenes:
  - enabled: 1
    path: Assets/Scenes/Splash_Screen.unity
    guid: 12481a31cec874b2f8bb6d1e4f5474cd
  - enabled: 1
    path: Assets/Scenes/Main_Scene.unity
    guid: e25bae08481f6a54fb5de37747a3e7cd
  - enabled: 1
    path: Assets/Scenes/Cosmetics_Scene.unity
    guid: 2b3a6866a11d19b49849201322048672
  - enabled: 1
    path: Assets/Scenes/Ads_Scene.unity
    guid: 04b26abebc3d80d4e968ba0abc1ada80
  - enabled: 1
    path: Assets/Scenes/Intro_Screen.unity
    guid: 750b1c7291e02614ab713064b0654900
  m_configObjects: {}
