%YAML 1.1
%TAG !u! tag:unity3d.com,2011:
--- !u!1001 &100100000
Prefab:
  m_ObjectHideFlags: 1
  serializedVersion: 2
  m_Modification:
    m_TransformParent: {fileID: 0}
    m_Modifications: []
    m_RemovedComponents: []
  m_SourcePrefab: {fileID: 0}
  m_RootGameObject: {fileID: 1316182564250798}
  m_IsPrefabAsset: 1
--- !u!1 &1316182564250798
GameObject:
  m_ObjectHideFlags: 0
  m_CorrespondingSourceObject: {fileID: 0}
  m_PrefabInternal: {fileID: 100100000}
  serializedVersion: 6
  m_Component:
  - component: {fileID: 4569457371575448}
  - component: {fileID: 114419316166677926}
  m_Layer: 0
  m_Name: MissionsManager
  m_TagString: MissionManager
  m_Icon: {fileID: 0}
  m_NavMeshLayer: 0
  m_StaticEditorFlags: 0
  m_IsActive: 1
--- !u!4 &4569457371575448
Transform:
  m_ObjectHideFlags: 1
  m_CorrespondingSourceObject: {fileID: 0}
  m_PrefabInternal: {fileID: 100100000}
  m_GameObject: {fileID: 1316182564250798}
  m_LocalRotation: {x: 0, y: 0, z: 0, w: 1}
  m_LocalPosition: {x: 0, y: 0, z: 0}
  m_LocalScale: {x: 1, y: 1, z: 1}
  m_Children: []
  m_Father: {fileID: 0}
  m_RootOrder: 0
  m_LocalEulerAnglesHint: {x: 0, y: 0, z: 0}
--- !u!114 &114419316166677926
MonoBehaviour:
  m_ObjectHideFlags: 1
  m_CorrespondingSourceObject: {fileID: 0}
  m_PrefabInternal: {fileID: 100100000}
  m_GameObject: {fileID: 1316182564250798}
  m_Enabled: 1
  m_EditorHideFlags: 0
  m_Script: {fileID: 11500000, guid: f1afbf2c3334ff045a6dcddb0410fd93, type: 3}
  m_Name: 
  m_EditorClassIdentifier: 
  ReferenceConfig: {fileID: 11400000, guid: b35cd546aa1d71c44a2769974fe00915, type: 2}
  ActiveConfig: {fileID: 0}
  currentHeightMission: 0
  currentCoinMission: 0
  currentBoostMission: 0
  tester: 0
  HeightMissions:
  - goal: 25
    progress: 0
    coinReward: 20
    completed: 0
  - goal: 100
    progress: 0
    coinReward: 50
    completed: 0
  - goal: 200
    progress: 0
    coinReward: 100
    completed: 0
  CoinMissions:
  - goal: 10
    progress: 0
    coinReward: 10
    completed: 0
  - goal: 25
    progress: 0
    coinReward: 25
    completed: 0
  - goal: 50
    progress: 0
    coinReward: 50
    completed: 0
  BoostMissions:
  - goal: 3
    progress: 0
    coinReward: 5
    completed: 0
  - goal: 10
    progress: 0
    coinReward: 20
    completed: 0
  - goal: 15
    progress: 0
    coinReward: 50
    completed: 0
